Visualize Confounder Control in Meta-Analyses • metaconfoundr
…
# if needed
# install.packages("remotes")
remotes::install_github("malcolmbarrett/metaconfoundr")

Visualizing confounding control

metaconfoundr includes an example dataset, ipi, that contains information on a meta-analysis of interpregnancy interval and the risk of preterm birth. Use metaconfoundr() to prepare the dataset to work with metaconfoundr functions. ipi includes several domains of confounders, but for ease of visualization, we’ll just show one, Sociodemographics.

library(metaconfoundr)
mc_ipi <- metaconfoundr(ipi) %>% 
  dplyr::filter(construct == "Sociodemographics")

mc_ipi
#> # A tibble: 55 x 5
#>    construct         variable     is_confounder study        control_quality
#>    <chr>             <chr>        <chr>         <chr>        <ord>          
#>  1 Sociodemographics Maternal Age Y             Zhu 2001a    some concerns  
#>  2 Sociodemographics Maternal Age Y             Zhu 2001b    some concerns  
#>  3 Sociodemographics Maternal Age Y             Zhu 1999     some concerns  
#>  4 Sociodemographics Maternal Age Y             Salihu 2012a some concerns  
#>  5 Sociodemographics Maternal Age Y             Salihu 2012b some concerns  
#>  6 Sociodemographics Maternal Age Y             Smith 2003   some concerns  
#>  7 Sociodemographics Maternal Age Y             Shachar 2016 some concerns  
#>  8 Sociodemographics Maternal Age Y             Ball 2014    some concerns  
#>  9 Sociodemographics Maternal Age Y             Coo 2017     some concerns  
#> 10 Sociodemographics Maternal Age Y             Hanley 2017  some concerns  
#> # … with 45 more rows
…
