…
metaconfoundr includes an example dataset, `ipi`, that contains
information on a meta-analysis of interpregnancy interval and the risk
of preterm birth. Use `metaconfoundr()` to prepare the dataset to work
with metaconfoundr functions. `ipi` includes several domains of
confounders, but for ease of visualization, we’ll just show one,
`Sociodemographics`.

``` r
library(metaconfoundr)
mc_ipi <- metaconfoundr(ipi) %>% 
  dplyr::filter(construct == "Sociodemographics")

mc_ipi
#> # A tibble: 90 x 5
#>    construct         variable     is_confounder study    control_quality
#>    <chr>             <chr>        <chr>         <chr>    <ord>          
#>  1 Sociodemographics Maternal age Y             study_1  adequate       
#>  2 Sociodemographics Maternal age Y             study_2  some concerns  
#>  3 Sociodemographics Maternal age Y             study_3  some concerns  
#>  4 Sociodemographics Maternal age Y             study_4  adequate       
#>  5 Sociodemographics Maternal age Y             study_5  adequate       
#>  6 Sociodemographics Maternal age Y             study_6  adequate       
#>  7 Sociodemographics Maternal age Y             study_7  some concerns  
#>  8 Sociodemographics Maternal age Y             study_8  some concerns  
#>  9 Sociodemographics Maternal age Y             study_9  some concerns  
#> 10 Sociodemographics Maternal age Y             study_10 some concerns  
#> # … with 80 more rows
```
…
