Summarize the control quality of studies — summarize_control_quality • metaconfoundr
…
    Value

    A tibble

    Examples

summary_df <- summarize_control_quality(
  metaconfoundr(ipi),
  Sociodemographics = `Maternal age` & `Race/ethnicity` & `Marital status`,
  Socioeconomics = `SES category` | Insurance & Education,
  "Reproductive Hx" = `Prior pregnancy outcome`
)

summary_df
#> # A tibble: 60 x 4
#>    study   variable          control_quality construct
#>    <chr>   <fct>             <ord>           <fct>    
#>  1 study_1 overall           some concerns   overall  
#>  2 study_1 Sociodemographics inadequate      domains  
#>  3 study_1 Socioeconomics    adequate        domains  
#>  4 study_1 Reproductive Hx   inadequate      domains  
#>  5 study_2 overall           some concerns   overall  
#>  6 study_2 Sociodemographics inadequate      domains  
#>  7 study_2 Socioeconomics    some concerns   domains  
#>  8 study_2 Reproductive Hx   inadequate      domains  
#>  9 study_3 overall           some concerns   overall  
#> 10 study_3 Sociodemographics inadequate      domains  
#> # … with 50 more rows
…
