An Introduction to metaconfoundr • metaconfoundr
…
library(metaconfoundr)

# for later examples
library(dplyr, warn.conflicts = FALSE)
library(ggplot2)

metaconfoundr(ipi)
#> # A tibble: 540 x 5
#>    construct         variable     is_confounder study    control_quality
#>    <chr>             <chr>        <chr>         <chr>    <ord>          
#>  1 Sociodemographics Maternal age Y             study_1  adequate       
#>  2 Sociodemographics Maternal age Y             study_2  some concerns  
#>  3 Sociodemographics Maternal age Y             study_3  some concerns  
#>  4 Sociodemographics Maternal age Y             study_4  adequate       
#>  5 Sociodemographics Maternal age Y             study_5  adequate       
#>  6 Sociodemographics Maternal age Y             study_6  adequate       
#>  7 Sociodemographics Maternal age Y             study_7  some concerns  
#>  8 Sociodemographics Maternal age Y             study_8  some concerns  
#>  9 Sociodemographics Maternal age Y             study_9  some concerns  
#> 10 Sociodemographics Maternal age Y             study_10 some concerns  
#> # … with 530 more rows

The vignette on evaluating studies has more detail, but in brief, the goal is to create a data frame where there are five columns and a row for each confounder and study. The columns are construct, the domain to which a confounder might belong (e.g., “Sociodemographics”); variable, the name of the variable (e.g. “age”); is_confounder, an indicator if the variable is a confounder; study, the name of the study (or another unique ID); and control_quality, an indicator of the level of control for a confounder. control_quality is one of “adequate”, “some concerns”, or “inadequate”. metaconfoundr attempts to automatically detect the layout of your data, but you have full control (see ?mc_detect_layout). You can also specify the data in this format manually.

Data that you provide metaconfoundr() can be in two basic formats: a long and wide. With the long format, metaconfoundr assumes that five columns match the above layout and standardizes them. If there are more than five, metaconfoundr() treats any additional columns as studies, (e.g., they are in wide format). It will automatically transform your wide data to the format expected by metaconfoundr plotting functions. ipi has a wide cousin, ipi_wide, which metaconfoundr() can prepare seamlessly:

ipi_wide
#> # A tibble: 36 x 18
#>    construct factor confounder_y_n study_1 study_2 study_3 study_4 study_5
#>    <chr>     <chr>  <chr>            <dbl>   <dbl>   <dbl>   <dbl>   <dbl>
#>  1 Sociodem… Mater… Y                    2       1       1       2       2
#>  2 Sociodem… Pater… Y                    0       0       0       0       0
#>  3 Sociodem… Race/… Y                    1       1       1       1       1
#>  4 Sociodem… Marit… Y                    2       2       2       1       1
#>  5 Sociodem… pater… Y                    0       0       0       0       0
#>  6 Sociodem… Geogr… Y                    0       0       0       0       0
#>  7 Socioeco… SES c… Y                    2       1       2       0       0
#>  8 Socioeco… Incom… Y                    0       0       0       0       0
#>  9 Socioeco… Educa… Y                    2       2       1       1       1
#> 10 Socioeco… Insur… Y                    0       0       0       0       0
#> # … with 26 more rows, and 10 more variables: study_6 <dbl>, study_7 <dbl>,
#> #   study_8 <dbl>, study_9 <dbl>, study_10 <dbl>, study_11 <dbl>,
#> #   study_12 <dbl>, study_13 <dbl>, study_14 <dbl>, study_15 <dbl>

metaconfoundr(ipi_wide)
#> # A tibble: 540 x 5
#>    construct         variable     is_confounder study    control_quality
#>    <chr>             <chr>        <chr>         <chr>    <ord>          
#>  1 Sociodemographics Maternal age Y             study_1  adequate       
#>  2 Sociodemographics Maternal age Y             study_2  some concerns  
#>  3 Sociodemographics Maternal age Y             study_3  some concerns  
#>  4 Sociodemographics Maternal age Y             study_4  adequate       
#>  5 Sociodemographics Maternal age Y             study_5  adequate       
#>  6 Sociodemographics Maternal age Y             study_6  adequate       
#>  7 Sociodemographics Maternal age Y             study_7  some concerns  
#>  8 Sociodemographics Maternal age Y             study_8  some concerns  
#>  9 Sociodemographics Maternal age Y             study_9  some concerns  
#> 10 Sociodemographics Maternal age Y             study_10 some concerns  
#> # … with 530 more rows
…
Summarizing confounder control

In addition to visualizing all possible confounders, metaconfoundr supports evaluating confounders at the domain level. For instance, if we feel ipi has three core areas of confounding, we can specify what variables are necessary for adequate control to account for the domain. These three domains are sociodemographics, socioeconomics, and reproductive history. We’ll say that controlling for maternal age, race/ethnicity, and marital status are sufficient to control for sociodemographics; socioeconomic status or insurance status and education are adequate for socioeconomics; and prior pregnancy outcomes are enough to control for reproductive history. We can specify these rules using boolean logic that refers to confounders in the variable column of our data:

summary_df <- summarize_control_quality(
  metaconfoundr(ipi),
  Sociodemographics = `Maternal age` & `Race/ethnicity` & `Marital status`,
  Socioeconomics = `SES category` | Insurance & Education,
  "Reproductive Hx" = `Prior pregnancy outcome`
)

summary_df
#> # A tibble: 60 x 4
#>    study   variable          control_quality construct
#>    <chr>   <fct>             <ord>           <fct>    
#>  1 study_1 overall           some concerns   overall  
#>  2 study_1 Sociodemographics inadequate      domains  
#>  3 study_1 Socioeconomics    adequate        domains  
#>  4 study_1 Reproductive Hx   inadequate      domains  
#>  5 study_2 overall           some concerns   overall  
#>  6 study_2 Sociodemographics inadequate      domains  
#>  7 study_2 Socioeconomics    some concerns   domains  
#>  8 study_2 Reproductive Hx   inadequate      domains  
#>  9 study_3 overall           some concerns   overall  
#> 10 study_3 Sociodemographics inadequate      domains  
#> # … with 50 more rows
…
